{
  "project_info": {
    "project_number": "445443732590",
    "firebase_url": "https://demodk3.firebaseio.com",
    "project_id": "demodk3",
    "storage_bucket": "demodk3.appspot.com"
  },
  "client": [
    {
      "client_info": {
        "mobilesdk_app_id": "1:445443732590:android:b423122166221ce0",
        "android_client_info": {
          "package_name": "com.example.dis015.demodk"
        }
      },
      "oauth_client": [
        {
          "client_id": "445443732590-j0g91q2csjgqvjn3p2kecnmmm3f31ppb.apps.googleusercontent.com",
          "client_type": 1,
          "android_info": {
            "package_name": "com.example.dis015.demodk",
            "certificate_hash": "5d8ad16e155fcf27b8d7b4af6a1b5124e4f08447"
          }
        },
        {
          "client_id": "445443732590-v8jmek35pub57d3607lusgb2ivgigr8k.apps.googleusercontent.com",
          "client_type": 1,
          "android_info": {
            "package_name": "com.example.dis015.demodk",
            "certificate_hash": "8928ad704d5844871d37ce6355c327a844b878a3"
          }
        },
        {
          "client_id": "445443732590-2o0g01f3bbrsdk6vmkcb7hv50455g8fs.apps.googleusercontent.com",
          "client_type": 3
        }
      ],
      "api_key": [
        {
          "current_key": "AIzaSyDcM63ut4dlCTZuQP6R6KaUgbhfKW_clW4"
        }
      ],
      "services": {
        "analytics_service": {
          "status": 1
        },
        "appinvite_service": {
          "status": 2,
          "other_platform_oauth_client": [
            {
              "client_id": "445443732590-2o0g01f3bbrsdk6vmkcb7hv50455g8fs.apps.googleusercontent.com",
              "client_type": 3
            }
          ]
        },
        "ads_service": {
          "status": 2
        }
      }
    }
  ],
  "configuration_version": "1"
}